companyID,companyName,companyAfm
1,Funk Group,230-34-6912
2,Schulist Inc,297-60-2095
3,Collier-Koss,146-28-0873
4,"Jenkins, Pfeffer and Purdy",203-37-7472
5,"Lehner, McCullough and Weimann",581-62-0383
6,Casper-Treutel,811-64-2465
7,"Gottlieb, Durgan and Schaefer",379-41-2316
8,Fritsch-Kovacek,377-85-2202
9,Kilback and Sons,692-97-3368
10,"Pacocha, Champlin and Jacobson",748-70-2960
