transactionid,customerid,ticketid,dateoftransaction
1,539,101,2017-09-28
2,647,164,2017-08-06
3,931,866,2019-01-29
4,1000,439,2019-03-03
5,942,1000,2019-10-08
6,263,770,2017-09-23
7,144,851,2017-04-27
8,509,830,2020-05-27
9,80,408,2017-11-08
10,587,244,2019-09-21
11,775,713,2020-05-24
12,408,292,2019-06-05
13,501,975,2020-04-09
14,230,226,2019-07-20
15,625,689,2020-05-24
16,50,187,2019-06-12
17,177,619,2020-05-21
18,37,195,2019-08-06
19,480,605,2019-10-27
20,38,569,2018-04-13
21,921,714,2018-05-11
22,142,549,2017-09-17
23,203,854,2018-10-12
24,213,823,2019-07-31
25,384,184,2020-06-19
26,597,371,2020-04-11
27,177,371,2019-09-02
28,366,605,2018-08-19
29,949,263,2019-01-25
30,928,667,2020-05-31
31,563,859,2020-03-01
32,469,707,2019-06-17
33,175,592,2020-05-05
34,956,167,2018-04-15
35,545,130,2019-07-04
36,325,152,2018-11-22
37,623,563,2020-02-11
38,20,414,2019-01-14
39,687,713,2019-12-08
40,138,376,2018-03-04
41,818,919,2018-06-11
42,36,10,2017-01-29
43,793,845,2017-06-27
44,945,348,2019-05-19
45,75,324,2018-09-10
46,165,238,2018-11-03
47,310,285,2020-05-23
48,733,648,2018-08-23
49,535,273,2018-08-02
50,432,285,2020-06-23
51,518,689,2019-03-03
52,658,770,2019-03-26
53,290,457,2017-03-07
54,941,97,2017-07-17
55,379,640,2020-04-27
56,92,922,2017-05-11
57,423,918,2017-09-30
58,41,920,2017-03-30
59,189,405,2017-12-20
60,229,352,2018-12-17
61,41,999,2018-04-29
62,912,477,2019-01-13
63,596,923,2018-06-14
64,792,491,2020-01-01
65,896,117,2018-06-18
66,540,126,2018-06-26
67,673,306,2018-04-23
68,803,716,2019-02-21
69,138,732,2018-11-13
70,989,276,2020-01-06
71,340,747,2019-06-17
72,408,290,2017-06-24
73,776,93,2017-09-22
74,924,850,2019-01-25
75,215,169,2019-02-24
76,373,754,2019-03-08
77,543,77,2018-09-11
78,918,690,2017-06-15
79,530,350,2017-09-19
80,542,747,2019-04-27
81,860,215,2018-04-17
82,82,517,2018-04-13
83,602,898,2019-11-23
84,233,570,2019-12-17
85,928,433,2017-12-16
86,989,680,2019-08-31
87,701,642,2019-07-06
88,513,412,2019-10-18
89,235,166,2019-05-09
90,424,125,2020-03-08
91,732,871,2018-08-03
92,37,975,2020-02-18
93,51,456,2019-02-01
94,439,152,2019-03-08
95,338,222,2017-12-11
96,927,529,2020-04-06
97,173,880,2018-01-13
98,627,431,2019-01-28
99,663,178,2018-08-04
100,708,141,2018-10-08
101,883,82,2018-12-14
102,930,352,2018-01-30
103,693,142,2017-05-09
104,760,488,2018-03-21
105,151,960,2017-08-26
106,747,690,2018-05-20
107,481,250,2017-04-08
108,678,363,2020-05-09
109,850,151,2018-02-01
110,991,16,2019-12-11
111,95,367,2017-09-19
112,111,130,2019-08-24
113,122,301,2018-01-30
114,820,669,2017-10-26
115,105,707,2017-12-05
116,810,262,2018-04-20
117,782,603,2018-08-17
118,123,88,2019-06-13
119,114,204,2017-06-27
120,336,616,2019-05-05
121,458,853,2018-03-29
122,718,123,2020-02-26
123,28,789,2017-05-09
124,255,632,2020-02-10
125,985,910,2019-06-11
126,165,181,2019-07-29
127,823,334,2019-08-01
128,751,81,2020-02-15
129,895,601,2020-01-21
130,433,780,2017-05-17
131,887,770,2019-09-30
132,595,447,2018-10-17
133,513,363,2018-04-24
134,944,507,2019-08-26
135,52,901,2020-08-21
136,660,426,2020-02-19
137,343,81,2017-03-30
138,665,488,2017-01-07
139,766,921,2020-02-12
140,216,779,2019-07-07
141,702,618,2017-05-22
142,786,902,2017-10-12
143,459,979,2018-10-10
144,867,201,2019-07-28
145,491,722,2018-06-07
146,415,547,2018-12-23
147,439,537,2019-07-06
148,732,107,2018-03-14
149,435,444,2019-11-29
150,784,284,2017-07-14
151,162,26,2019-06-06
152,169,970,2017-07-26
153,148,215,2017-09-10
154,889,66,2017-10-13
155,873,308,2018-07-17
156,296,581,2020-03-06
157,950,671,2019-06-14
158,339,583,2019-11-15
159,882,549,2018-05-17
160,659,873,2018-10-25
161,267,352,2017-12-16
162,534,858,2020-05-24
163,88,374,2018-07-05
164,303,66,2018-04-10
165,317,894,2018-11-05
166,956,101,2017-05-22
167,596,693,2018-03-15
168,589,441,2019-09-16
169,618,678,2018-10-18
170,531,261,2019-11-17
171,501,184,2019-08-27
172,654,574,2018-07-04
173,834,255,2020-06-12
174,269,236,2017-04-14
175,215,822,2017-11-30
176,260,575,2020-01-18
177,940,47,2019-02-20
178,279,124,2017-03-14
179,315,158,2018-10-14
180,942,688,2017-03-08
181,867,164,2017-10-21
182,94,366,2020-01-27
183,391,958,2019-03-02
184,956,851,2018-10-17
185,174,1,2017-09-02
186,659,709,2018-04-07
187,780,748,2017-07-05
188,214,322,2017-11-19
189,549,605,2018-01-02
190,569,993,2019-01-29
191,750,543,2017-12-05
192,391,262,2017-04-15
193,758,277,2020-02-26
194,173,889,2019-01-23
195,176,948,2018-01-13
196,880,943,2018-08-04
197,315,800,2018-10-27
198,887,19,2018-04-15
199,879,981,2020-01-04
200,918,885,2019-09-19
201,960,695,2017-11-13
202,799,41,2017-05-07
203,500,728,2019-02-19
204,411,928,2020-05-08
205,881,45,2019-03-05
206,166,994,2019-09-15
207,726,93,2017-11-20
208,786,846,2018-04-30
209,901,751,2018-01-30
210,107,785,2020-03-11
211,617,173,2020-04-23
212,896,85,2020-02-29
213,955,316,2017-09-01
214,542,774,2018-09-27
215,313,922,2019-07-22
216,56,952,2017-08-21
217,451,641,2017-03-10
218,609,413,2018-06-07
219,38,171,2019-08-24
220,26,563,2020-02-07
221,435,641,2019-04-08
222,352,745,2017-12-04
223,156,697,2018-06-01
224,271,822,2019-06-18
225,512,912,2018-10-31
226,291,208,2017-07-12
227,350,918,2019-04-05
228,317,844,2020-08-10
229,461,104,2017-09-24
230,595,782,2018-04-11
231,77,906,2018-07-19
232,997,868,2018-06-15
233,604,341,2017-12-07
234,453,778,2018-06-29
235,375,597,2020-07-30
236,73,262,2019-06-15
237,780,365,2018-06-27
238,767,708,2017-10-08
239,863,955,2018-10-23
240,439,230,2019-11-09
241,914,930,2018-02-21
242,602,53,2020-04-20
243,674,169,2018-11-10
244,721,208,2018-02-11
245,25,344,2020-07-19
246,772,599,2019-12-30
247,678,350,2020-07-15
248,552,390,2018-06-29
249,432,348,2018-08-15
250,133,281,2018-04-09
251,735,105,2018-06-23
252,152,943,2019-11-24
253,731,928,2019-04-18
254,400,233,2017-02-07
255,441,110,2018-01-15
256,16,283,2019-11-02
257,853,323,2020-07-30
258,267,636,2018-02-15
259,229,182,2017-08-02
260,342,918,2020-02-21
261,604,671,2019-12-25
262,736,723,2017-09-29
263,826,79,2019-01-14
264,439,198,2018-09-19
265,537,786,2020-05-11
266,163,983,2019-10-28
267,20,795,2018-02-13
268,609,42,2020-02-21
269,928,355,2018-07-26
270,955,839,2017-03-14
271,662,523,2018-05-28
272,588,959,2018-05-12
273,179,365,2019-11-09
274,986,930,2018-11-13
275,175,433,2019-09-03
276,106,887,2017-12-26
277,533,226,2020-01-26
278,166,710,2018-12-30
279,46,783,2019-03-03
280,893,218,2017-05-14
281,535,386,2017-07-27
282,297,54,2018-04-08
283,660,171,2019-01-28
284,195,647,2018-11-08
285,415,885,2018-06-25
286,496,581,2018-04-19
287,294,751,2019-09-23
288,601,412,2020-02-04
289,209,261,2017-06-22
290,25,360,2017-03-09
291,827,14,2017-08-17
292,177,455,2019-11-06
293,519,617,2020-05-23
294,828,442,2018-10-01
295,867,157,2019-08-14
296,352,947,2020-04-02
297,203,99,2017-06-03
298,395,208,2019-02-05
299,887,813,2019-11-07
300,578,611,2020-07-15
301,29,850,2017-02-11
302,273,105,2018-09-13
303,552,523,2018-01-02
304,207,821,2019-04-11
305,810,582,2019-07-20
306,119,460,2020-01-19
307,916,348,2020-02-07
308,3,209,2017-05-05
309,73,18,2018-01-07
310,379,507,2018-09-21
311,536,445,2020-04-25
312,102,361,2017-11-20
313,56,466,2019-06-22
314,991,614,2019-12-26
315,964,917,2019-04-02
316,346,940,2017-11-20
317,379,35,2019-01-09
318,667,941,2020-08-16
319,621,537,2019-04-02
320,733,103,2018-10-20
321,423,537,2018-10-02
322,120,437,2020-05-18
323,530,20,2018-03-11
324,619,489,2019-06-13
325,394,176,2017-01-10
326,594,424,2017-02-19
327,18,949,2019-07-21
328,408,299,2020-06-11
329,871,468,2018-05-18
330,998,736,2017-07-16
331,23,328,2017-09-30
332,536,646,2017-01-25
333,122,228,2017-08-14
334,35,348,2017-09-17
335,969,234,2018-03-16
336,816,197,2018-07-04
337,76,275,2018-10-25
338,749,285,2019-11-11
339,60,59,2017-12-18
340,447,568,2020-04-15
341,551,280,2018-02-01
342,7,703,2019-01-31
343,513,934,2018-07-05
344,367,392,2018-08-06
345,151,939,2018-08-01
346,515,624,2020-03-24
347,791,343,2018-04-13
348,371,688,2019-01-23
349,843,270,2019-08-28
350,114,488,2019-12-13
351,147,688,2019-06-07
352,246,299,2017-01-08
353,329,671,2020-02-21
354,513,26,2017-07-06
355,327,888,2020-07-20
356,87,721,2017-05-20
357,953,173,2018-10-17
358,292,65,2020-06-20
359,688,442,2017-08-10
360,258,671,2019-08-13
361,184,989,2020-07-30
362,207,244,2020-03-11
363,824,593,2019-08-12
364,415,302,2018-12-08
365,998,30,2018-12-14
366,319,937,2018-03-07
367,523,320,2017-04-15
368,100,758,2019-01-06
369,91,997,2020-03-04
370,839,329,2020-06-09
371,918,27,2019-12-29
372,187,648,2017-01-24
373,47,504,2019-02-11
374,152,537,2019-01-12
375,795,118,2019-09-01
376,441,492,2017-07-06
377,22,793,2020-02-02
378,115,187,2020-08-16
379,599,476,2020-02-16
380,281,502,2018-01-16
381,807,337,2018-01-17
382,131,153,2018-04-13
383,220,969,2020-04-27
384,550,419,2017-08-20
385,274,948,2018-09-25
386,82,256,2017-01-09
387,471,637,2020-07-15
388,659,255,2018-09-29
389,334,732,2020-07-08
390,730,238,2018-06-02
391,65,957,2019-05-17
392,300,840,2020-03-06
393,660,279,2018-06-21
394,385,643,2018-06-07
395,572,753,2017-05-14
396,396,731,2020-08-17
397,790,40,2017-02-22
398,64,484,2018-10-23
399,188,747,2019-10-10
400,614,915,2020-03-11
401,306,191,2019-10-20
402,357,138,2019-09-28
403,360,565,2020-02-22
404,928,169,2018-07-01
405,691,186,2019-11-03
406,77,754,2017-07-13
407,16,209,2019-03-08
408,650,704,2017-03-09
409,474,312,2018-07-18
410,316,358,2018-08-22
411,295,103,2018-10-15
412,337,380,2017-04-05
413,28,604,2019-11-07
414,801,534,2017-01-25
415,543,255,2019-12-14
416,141,200,2017-01-01
417,974,540,2018-03-25
418,198,11,2018-12-13
419,826,361,2020-04-27
420,836,789,2019-07-07
421,851,878,2020-03-24
422,222,449,2017-10-25
423,914,897,2017-07-16
424,991,633,2017-06-18
425,316,367,2020-08-13
426,396,589,2020-08-06
427,461,854,2017-05-08
428,775,931,2018-07-14
429,309,63,2018-01-17
430,183,863,2019-07-10
431,418,267,2019-03-19
432,56,265,2017-12-14
433,11,202,2019-07-14
434,245,464,2020-07-19
435,724,897,2020-07-31
436,881,762,2018-10-22
437,51,723,2019-07-01
438,525,807,2020-01-31
439,296,205,2017-10-23
440,502,456,2017-11-06
441,565,14,2017-09-21
442,18,761,2018-12-10
443,674,813,2017-12-03
444,992,856,2017-08-27
445,918,754,2018-09-23
446,190,257,2019-03-14
447,378,846,2019-05-31
448,968,890,2018-04-09
449,299,486,2019-10-27
450,331,507,2017-06-10
451,133,737,2019-06-14
452,776,87,2018-07-15
453,382,314,2019-11-27
454,706,230,2020-07-12
455,734,314,2017-09-24
456,252,695,2019-05-23
457,235,243,2017-05-01
458,178,831,2018-12-06
459,718,162,2020-05-09
460,990,686,2018-01-21
461,763,562,2019-03-25
462,402,965,2018-10-13
463,782,626,2017-06-01
464,714,595,2019-01-03
465,423,825,2017-06-17
466,173,589,2018-09-08
467,257,699,2017-09-08
468,75,744,2020-02-26
469,670,430,2019-03-09
470,209,994,2019-09-26
471,698,160,2017-02-28
472,432,85,2019-08-15
473,70,630,2018-03-31
474,314,983,2017-10-07
475,672,996,2017-10-16
476,312,6,2018-04-24
477,349,318,2018-07-18
478,249,936,2018-06-24
479,223,599,2020-06-09
480,845,199,2019-07-27
481,798,306,2018-01-21
482,974,556,2019-01-23
483,501,81,2017-07-09
484,347,8,2018-01-09
485,153,121,2019-12-08
486,373,887,2019-05-27
487,492,441,2020-03-30
488,24,632,2020-06-26
489,869,768,2019-10-29
490,312,669,2017-08-30
491,632,418,2017-08-05
492,930,608,2017-08-22
493,200,716,2019-07-04
494,766,304,2017-11-03
495,231,324,2017-08-13
496,192,165,2018-05-21
497,707,110,2019-07-19
498,171,269,2018-10-30
499,21,600,2017-10-25
500,309,15,2020-02-12
501,44,359,2019-06-28
502,964,78,2017-01-14
503,517,702,2020-04-04
504,914,540,2017-06-08
505,313,849,2018-05-14
506,764,220,2018-07-02
507,884,417,2017-07-17
508,471,910,2019-03-31
509,153,181,2018-09-14
510,640,225,2018-02-20
511,968,651,2020-02-01
512,818,172,2020-06-18
513,412,622,2018-04-08
514,897,595,2018-02-02
515,293,990,2018-05-01
516,245,148,2017-10-17
517,57,151,2019-05-15
518,554,218,2019-10-21
519,644,39,2018-09-01
520,257,382,2019-11-26
521,262,621,2018-06-03
522,450,428,2019-09-04
523,236,621,2018-06-18
524,851,151,2017-03-16
525,491,641,2018-09-05
526,718,631,2018-01-26
527,755,61,2018-06-21
528,225,158,2019-04-06
529,950,600,2018-01-22
530,378,600,2020-05-05
531,102,871,2018-12-11
532,724,287,2018-06-16
533,316,169,2019-03-06
534,822,984,2020-06-22
535,575,851,2020-04-28
536,254,801,2019-07-02
537,374,837,2017-01-26
538,700,932,2019-02-19
539,246,213,2018-11-17
540,178,835,2018-04-16
541,467,99,2017-02-03
542,818,900,2019-09-25
543,306,246,2020-05-03
544,184,592,2020-07-13
545,212,856,2019-05-16
546,473,840,2018-03-01
547,957,449,2017-05-21
548,888,954,2017-02-08
549,398,931,2018-11-21
550,76,485,2020-05-10
551,240,214,2018-06-14
552,982,97,2020-08-12
553,798,767,2018-09-09
554,134,258,2019-10-13
555,364,811,2018-02-24
556,886,661,2017-09-24
557,814,714,2017-07-27
558,544,353,2020-07-29
559,899,103,2017-11-14
560,404,266,2020-04-15
561,48,100,2017-09-29
562,510,656,2020-07-25
563,688,142,2019-10-17
564,700,817,2017-02-28
565,868,998,2019-04-06
566,260,341,2020-06-25
567,822,825,2018-03-05
568,806,865,2019-08-09
569,322,766,2018-06-18
570,182,39,2020-01-31
571,222,595,2017-12-27
572,518,530,2017-03-07
573,928,390,2018-07-29
574,540,946,2019-11-28
575,651,251,2017-07-25
576,685,156,2019-08-11
577,769,627,2017-11-27
578,642,103,2018-02-28
579,872,43,2020-04-12
580,30,674,2017-11-03
581,492,534,2019-04-04
582,421,107,2020-04-04
583,71,393,2018-02-28
584,383,538,2019-07-03
585,160,465,2020-06-08
586,22,720,2020-01-30
587,876,437,2017-12-07
588,762,651,2017-09-13
589,736,785,2019-03-19
590,424,280,2020-05-21
591,33,374,2020-01-12
592,518,254,2018-11-29
593,486,529,2018-03-21
594,997,631,2020-01-10
595,446,521,2018-09-26
596,330,63,2017-05-13
597,20,484,2020-01-04
598,905,575,2018-04-25
599,867,719,2017-06-28
600,922,426,2019-09-06
601,454,327,2017-06-21
602,611,801,2018-01-13
603,235,318,2018-09-08
604,446,176,2017-07-12
605,707,866,2018-05-11
606,482,940,2018-09-24
607,919,222,2017-06-30
608,841,828,2019-02-28
609,918,491,2017-02-04
610,715,430,2020-03-29
611,225,393,2019-02-23
612,661,220,2017-11-06
613,346,326,2018-05-05
614,605,522,2018-10-06
615,49,454,2019-02-06
616,646,313,2018-10-28
617,478,307,2019-05-03
618,834,672,2020-04-17
619,613,134,2019-01-19
620,800,27,2017-10-28
621,280,486,2017-09-02
622,932,161,2017-09-11
623,366,706,2018-12-23
624,924,988,2017-06-11
625,860,137,2020-06-04
626,297,58,2020-02-13
627,775,159,2017-04-01
628,91,104,2019-09-04
629,1000,876,2018-11-04
630,872,674,2018-09-20
631,830,613,2017-01-23
632,127,415,2019-04-01
633,100,350,2019-11-20
634,486,926,2017-06-30
635,543,94,2020-05-12
636,600,16,2020-03-31
637,616,224,2019-12-28
638,461,573,2017-02-19
639,221,30,2017-01-07
640,107,507,2017-10-09
641,940,184,2017-10-13
642,331,647,2019-08-15
643,331,970,2018-05-01
644,331,384,2018-12-22
645,663,590,2018-12-26
646,429,914,2019-02-27
647,640,658,2018-11-04
648,728,325,2019-02-07
649,55,1000,2017-04-09
650,419,524,2018-11-13
651,959,967,2017-07-08
652,4,543,2018-03-28
653,504,132,2017-12-26
654,924,997,2019-01-13
655,313,700,2018-12-14
656,261,142,2019-03-03
657,748,385,2018-12-28
658,492,562,2017-06-10
659,363,976,2017-11-26
660,657,420,2017-08-04
661,877,16,2019-12-05
662,141,189,2018-03-04
663,162,756,2018-07-04
664,932,411,2017-08-21
665,277,356,2017-07-28
666,854,608,2018-10-29
667,354,418,2019-12-31
668,730,927,2018-11-22
669,914,868,2018-03-06
670,91,498,2020-07-08
671,253,771,2017-09-02
672,976,888,2018-11-12
673,444,613,2018-09-23
674,274,515,2018-08-03
675,714,156,2018-02-26
676,859,954,2017-10-14
677,368,191,2018-06-04
678,940,294,2017-08-08
679,540,245,2018-09-25
680,19,414,2017-12-13
681,46,458,2017-01-27
682,747,388,2018-04-22
683,213,991,2018-08-29
684,643,461,2020-03-30
685,808,768,2020-02-05
686,431,655,2019-02-02
687,253,183,2017-09-06
688,797,504,2019-12-02
689,904,218,2018-09-05
690,934,511,2018-07-30
691,93,227,2019-07-21
692,199,165,2017-07-07
693,393,511,2017-10-26
694,510,177,2017-01-22
695,181,808,2017-10-26
696,278,182,2020-07-28
697,273,933,2020-05-08
698,502,289,2019-08-20
699,723,206,2018-04-01
700,756,381,2018-08-16
701,692,389,2019-06-18
702,207,768,2017-09-28
703,119,809,2019-10-18
704,112,563,2020-07-11
705,671,276,2018-10-24
706,195,149,2019-07-30
707,393,705,2017-05-25
708,781,50,2020-05-03
709,808,80,2019-07-27
710,722,730,2017-02-10
711,287,476,2017-10-21
712,364,17,2017-01-12
713,86,58,2017-12-23
714,335,924,2018-01-19
715,44,192,2017-08-18
716,436,41,2019-11-23
717,437,999,2018-05-26
718,353,183,2017-08-25
719,448,195,2018-08-07
720,598,750,2019-01-05
721,421,1,2020-07-01
722,769,572,2018-03-31
723,534,861,2019-09-01
724,865,624,2020-04-16
725,424,319,2019-10-03
726,586,325,2017-10-09
727,269,387,2018-07-24
728,877,356,2017-03-27
729,213,535,2020-04-07
730,145,278,2018-05-06
731,623,104,2017-06-01
732,464,896,2019-09-30
733,634,648,2019-11-02
734,801,372,2017-09-01
735,750,966,2018-10-14
736,480,649,2017-09-27
737,651,133,2017-12-05
738,408,924,2018-01-03
739,807,767,2019-06-24
740,865,546,2019-04-07
741,985,22,2018-03-07
742,304,986,2017-02-07
743,131,391,2018-12-20
744,778,148,2018-01-29
745,897,298,2017-08-03
746,186,572,2020-07-23
747,882,814,2020-07-31
748,760,299,2017-08-29
749,846,666,2017-12-15
750,946,10,2019-08-14
751,674,968,2018-07-05
752,477,859,2019-10-01
753,521,12,2017-12-18
754,338,678,2018-02-10
755,78,159,2017-05-23
756,740,749,2018-04-19
757,459,382,2018-11-12
758,726,591,2017-10-24
759,488,395,2019-12-25
760,52,269,2020-05-23
761,216,466,2020-03-22
762,590,43,2017-03-02
763,201,88,2019-08-21
764,317,175,2018-11-25
765,384,300,2020-06-28
766,343,108,2018-01-20
767,888,590,2019-02-25
768,453,230,2019-08-03
769,680,107,2019-01-14
770,834,91,2019-10-26
771,641,551,2020-07-16
772,957,922,2017-08-13
773,481,416,2019-01-14
774,775,381,2018-02-19
775,934,383,2018-02-17
776,497,311,2019-05-11
777,554,288,2017-09-18
778,33,383,2020-07-22
779,92,293,2018-03-11
780,950,92,2020-03-03
781,530,447,2017-12-08
782,447,389,2019-04-07
783,315,89,2019-02-06
784,108,665,2017-06-15
785,362,750,2018-06-08
786,278,939,2018-08-01
787,156,734,2019-02-02
788,424,498,2019-11-25
789,196,791,2017-10-24
790,172,391,2020-07-30
791,731,929,2020-06-10
792,521,994,2018-11-06
793,967,566,2017-03-13
794,499,953,2018-11-03
795,36,967,2017-08-01
796,434,604,2018-07-16
797,445,485,2019-04-30
798,170,208,2018-08-10
799,383,743,2018-05-16
800,89,554,2018-01-31
801,900,908,2018-01-08
802,133,411,2019-03-19
803,526,824,2018-01-17
804,956,937,2017-10-08
805,185,951,2019-06-30
806,861,255,2019-08-05
807,934,629,2019-12-28
808,19,796,2018-01-13
809,902,751,2020-03-12
810,280,167,2020-06-20
811,277,910,2017-07-31
812,569,249,2017-12-07
813,540,694,2019-01-11
814,428,283,2017-09-18
815,676,498,2019-07-04
816,76,707,2018-01-28
817,226,887,2017-01-16
818,324,479,2018-12-13
819,153,449,2017-07-30
820,393,567,2020-07-17
821,579,136,2020-03-27
822,980,911,2017-10-12
823,623,711,2018-10-15
824,721,364,2018-03-06
825,249,778,2017-06-22
826,149,645,2018-10-27
827,172,908,2018-09-14
828,586,465,2018-10-21
829,269,954,2020-07-11
830,106,870,2020-03-24
831,757,585,2020-05-25
832,320,920,2018-05-10
833,486,127,2020-02-04
834,286,927,2018-03-02
835,449,876,2018-12-11
836,798,673,2017-11-18
837,415,827,2017-01-14
838,792,126,2019-10-01
839,913,514,2018-07-06
840,447,598,2019-01-26
841,693,937,2020-01-31
842,218,527,2019-03-11
843,772,564,2019-12-29
844,827,455,2018-02-19
845,548,499,2019-12-06
846,757,947,2019-07-26
847,192,12,2020-03-02
848,447,842,2017-07-13
849,952,64,2018-12-18
850,161,237,2017-02-21
851,8,661,2020-05-03
852,42,329,2017-12-07
853,161,294,2019-04-28
854,353,913,2018-02-12
855,440,957,2017-07-24
856,237,630,2018-06-30
857,621,43,2019-06-12
858,541,992,2020-04-15
859,802,664,2018-06-06
860,17,620,2019-12-02
861,615,9,2018-06-19
862,978,791,2018-10-02
863,455,761,2020-02-18
864,176,353,2018-09-13
865,45,791,2018-11-15
866,833,101,2019-10-05
867,177,679,2018-05-24
868,468,3,2019-02-24
869,201,580,2019-05-07
870,306,447,2019-08-18
871,240,19,2020-06-27
872,717,608,2018-07-23
873,398,39,2018-03-08
874,397,533,2019-07-20
875,188,309,2019-05-02
876,286,770,2019-11-18
877,536,78,2018-03-19
878,363,943,2020-02-15
879,170,349,2017-01-04
880,996,935,2019-02-12
881,262,944,2017-05-01
882,477,625,2019-04-16
883,651,27,2020-06-15
884,882,998,2019-03-20
885,196,31,2020-06-21
886,824,105,2019-06-20
887,186,895,2018-04-03
888,737,47,2019-05-20
889,796,578,2017-02-18
890,558,943,2017-07-30
891,77,606,2017-06-05
892,112,775,2020-06-16
893,9,320,2019-11-27
894,104,747,2018-08-07
895,680,906,2020-01-11
896,276,402,2019-03-10
897,582,616,2019-12-23
898,877,243,2019-11-21
899,331,954,2017-06-27
900,235,600,2017-02-01
901,817,945,2017-01-23
902,714,438,2017-06-15
903,395,721,2017-09-30
904,318,285,2017-02-07
905,29,622,2017-06-16
906,168,313,2018-01-29
907,702,280,2020-05-05
908,990,859,2020-02-15
909,390,710,2020-08-01
910,746,917,2019-04-25
911,675,82,2020-04-23
912,150,816,2019-06-26
913,942,12,2018-08-07
914,328,471,2018-01-22
915,137,709,2018-06-13
916,759,424,2019-06-20
917,528,967,2018-02-14
918,975,818,2018-09-02
919,794,101,2020-06-09
920,246,575,2017-08-02
921,521,63,2018-05-21
922,491,976,2017-03-10
923,678,674,2018-08-11
924,498,267,2020-02-28
925,917,821,2017-10-23
926,693,957,2020-07-14
927,362,240,2018-02-25
928,816,224,2017-08-23
929,982,56,2018-05-13
930,884,142,2019-06-05
931,592,885,2020-04-08
932,43,864,2019-08-11
933,969,213,2019-07-25
934,516,537,2019-10-12
935,826,843,2019-02-12
936,240,430,2018-12-09
937,668,628,2018-05-02
938,909,324,2019-09-17
939,738,431,2019-12-09
940,42,973,2020-01-02
941,647,6,2018-01-26
942,394,839,2018-02-04
943,656,333,2018-09-10
944,150,729,2017-12-02
945,133,891,2018-08-25
946,122,37,2020-05-21
947,740,967,2019-06-08
948,624,853,2017-01-08
949,315,430,2019-01-19
950,281,116,2018-12-28
951,974,67,2018-09-17
952,827,336,2017-04-30
953,669,61,2019-12-26
954,697,292,2020-02-10
955,741,37,2020-02-29
956,146,587,2020-03-14
957,72,152,2018-07-20
958,787,356,2018-12-26
959,171,676,2019-02-04
960,527,377,2018-11-08
961,679,565,2019-02-04
962,136,313,2019-12-30
963,360,945,2019-02-03
964,778,748,2020-08-07
965,944,792,2020-02-13
966,376,518,2018-03-08
967,842,419,2019-03-27
968,318,225,2018-12-22
969,587,529,2019-12-24
970,121,527,2018-09-27
971,737,614,2019-01-12
972,616,153,2018-03-13
973,404,68,2017-04-03
974,642,191,2018-09-19
975,678,510,2018-12-12
976,156,422,2017-02-15
977,128,884,2018-06-06
978,202,683,2018-05-09
979,894,874,2017-11-29
980,176,447,2017-01-31
981,134,205,2017-01-16
982,542,461,2019-01-17
983,759,649,2018-03-27
984,175,495,2019-12-08
985,480,858,2020-05-04
986,940,6,2017-09-06
987,79,828,2019-04-01
988,662,11,2018-05-04
989,486,792,2019-10-07
990,374,134,2019-01-03
991,170,491,2017-06-07
992,911,828,2018-08-24
993,354,469,2019-03-31
994,460,679,2017-01-20
995,559,860,2018-11-16
996,239,25,2017-06-17
997,175,383,2018-10-06
998,34,521,2019-04-05
999,410,519,2017-04-08
1000,852,783,2017-01-16
